Title: Sport

----

Bezeichnung: Fachbereichsleiter

----

Namefbl: Herr Arzenscheg (komm.)

----

Email: as@kgs-rastede.eu

----

Text: [{"content":{"text":"<p>Bewegung ist Lernen, ist Leben</p>"},"id":"a127f5b4-484d-4693-9f8d-b944035cb867","isHidden":false,"type":"text"}]

----

Pages:

- page://06gEoguQZdduASYA
- page://bKAhjFHW6i969l1F

----

Symbolbild: - file://gdAkW0osltSbLYLA

----

Tags: Sport, Schwimmen

----

Files: - sport.jpg

----

Uuid: s1OkZxmSFwcKCqMm