Title: Testblog mit allen Blöcken

----

Text: [{"attrs":[],"columns":[{"blocks":[{"content":{"level":"h6","text":"Überschrift 6"},"id":"4ed8add1-d83d-4f31-a7fc-707903233154","isHidden":false,"type":"heading"},{"content":{"level":"h5","text":"Überschrift 5"},"id":"4e9453ea-26ed-47cd-ab46-320691045d9b","isHidden":false,"type":"heading"},{"content":{"level":"h4","text":"Überschrift 4"},"id":"e93f250e-b2dd-4c07-a008-41165b97d857","isHidden":false,"type":"heading"},{"content":{"level":"h3","text":"Überschrift 3"},"id":"2533863e-f5d4-4400-839e-b686313d7666","isHidden":false,"type":"heading"},{"content":{"level":"h2","text":"Überschrift 2"},"id":"ffb569cf-066b-42bf-938f-5d5efd9cc540","isHidden":false,"type":"heading"},{"content":{"level":"h1","text":"Überschrift 1"},"id":"44176856-0008-44a8-b782-a9556a810636","isHidden":false,"type":"heading"}],"id":"17d3e68b-27b1-4f9c-924e-79bfeb6ad4d1","width":"1/1"}],"id":"f8bd77d2-44a8-4e5b-b98d-ad551a794194"},{"attrs":[],"columns":[{"blocks":[{"content":{"text":"<p>Lorem ipsum dolor sit amet, consectetur adipiscing elit, sed do eiusmod tempor incididunt ut labore et dolore magna aliqua. Ut enim ad minim veniam, quis nostrud exercitation ullamco laboris nisi ut aliquip ex ea commodo consequat. Duis aute irure dolor in reprehenderit in voluptate velit esse cillum dolore eu fugiat nulla pariatur. Excepteur sint occaecat cupidatat non proident, sunt in culpa qui officia deserunt mollit anim id est laborum.</p>"},"id":"7047d1bc-1a42-4b9a-8a07-24deddfabb94","isHidden":false,"type":"text"}],"id":"7f09678f-f05b-4187-a6ce-da3774dcae09","width":"1/1"}],"id":"56ef8110-be42-4d5a-9168-ddd5949043a3"},{"attrs":[],"columns":[{"blocks":[{"content":{"text":"<ul><li>eine Liste</li><li>mit</li><li>drei Punkten</li></ul>"},"id":"d1ad8d09-91cb-41ec-97bb-938df041af39","isHidden":false,"type":"list"}],"id":"0ae96840-3cf8-45f8-a051-2fe0fd2a13a4","width":"1/1"}],"id":"b1da1409-c714-4f51-b97d-1ec469458fed"},{"attrs":[],"columns":[{"blocks":[{"content":{"level":"h2","text":"Es folgt ein einfaches Bild"},"id":"b7ba61e4-5316-415b-9a46-52144942621f","isHidden":false,"type":"heading"},{"content":{"location":"web","image":[],"src":"https://images.unsplash.com/photo-1582893523614-76d5069711f8?ixlib=rb-4.0.3&ixid=MnwxMjA3fDB8MHxwaG90by1wYWdlfHx8fGVufDB8fHx8&auto=format&fit=crop&w=2071&q=80","alt":"Alternativer Text","caption":"Bildunterschrift","link":"","ratio":"","crop":"false","orientation":""},"id":"74b8d597-59be-4ab8-b8bd-b5746c206a50","isHidden":false,"type":"image"}],"id":"68880eca-7e22-46a0-8fca-c9c7722fa123","width":"1/1"}],"id":"160d4895-7e70-4207-96f4-9b8363b60c3b"},{"attrs":[],"columns":[{"blocks":[{"content":{"level":"h2","text":"Es folgt eine Gallerie mit 3 Bildern"},"id":"f48193c1-47ab-4e3d-aab0-a8890e640c76","isHidden":false,"type":"heading"},{"content":{"images":["file://4HvsgRtBq9QCRj2x","file://oQXIvTT9bb0g9v0x","file://jGKs9RrlBdRV4VYy"],"caption":"Hier ist eine Unterschrift unter der ganzen Gallerie","ratio":"","crop":"false"},"id":"e9c0fbf9-fdf2-4d29-957e-6bf0b2fc7997","isHidden":false,"type":"gallery"}],"id":"d617b90a-4cb0-4329-855c-3a285e0ee33d","width":"1/1"}],"id":"33ee9bfb-a8c2-4688-b17b-f70b022053e8"},{"attrs":[],"columns":[{"blocks":[{"content":{"level":"h2","text":"Es folgt ein Video"},"id":"0ebd57c7-5a81-4dec-8a16-2360274a3c50","isHidden":false,"type":"heading"},{"content":{"url":"https://youtu.be/dQw4w9WgXcQ?si=60gsh7cRNDx1OS6K","caption":"Über eine Milliarden Klicks..."},"id":"eb62111c-d096-4b3b-92fb-686425e5964f","isHidden":false,"type":"video"}],"id":"f0e8901c-48db-4272-8fa7-0f764d8cf0f6","width":"1/1"}],"id":"4424dc5b-1b6a-4fb2-b502-c2c5be60b039"},{"attrs":[],"columns":[{"blocks":[{"content":{"level":"h2","text":"Es folgt ein lokales Video"},"id":"4433e32b-3a97-4b66-9576-cb430b0409c0","isHidden":false,"type":"heading"},{"content":{"video":["file://pjiWJLShJi7nz39y"],"name":"Testvideo","autor":"Nils"},"id":"666a5a0f-b9f9-44c3-8f10-010c60d0d914","isHidden":false,"type":"local-video"}],"id":"4ccafa84-3e2f-47a2-92a2-dfe097ff8110","width":"1/1"}],"id":"81bf38ad-059e-4278-b510-aac504a7b53e"},{"attrs":[],"columns":[{"blocks":[{"content":{"level":"h2","text":"Es folgt ein Block mit Quellcode"},"id":"5fa107a1-d337-4ac8-a57d-5697e91011f1","isHidden":false,"type":"heading"},{"content":{"code":"// Definition der rekursiven Fibonacci-Funktion\nfn fibonacci(n: u32) -> u32 {\n    // Basisfälle: Fibonacci(0) ist 0, Fibonacci(1) ist 1\n    if n == 0 {\n        return 0;\n    } else if n == 1 {\n        return 1;\n    } else {\n        // Rekursive Berechnung von Fibonacci(n) durch Addition der beiden vorherigen Fibonacci-Zahlen\n        return fibonacci(n - 1) + fibonacci(n - 2);\n    }\n}\n\nfn main() {\n    // Aufrufen der Fibonacci-Funktion für die Zahlen 0 bis 9 und Ausgabe der Ergebnisse\n    for i in 0..10 {\n        println!(\"Fibonacci({}): {}\", i, fibonacci(i));\n    }\n}","language":"rust"},"id":"2f5c6406-3b95-4679-9359-165aa9bca191","isHidden":false,"type":"code"}],"id":"b4263e60-2ec7-49ad-a147-75af3756b159","width":"1/1"}],"id":"3fef9062-5e42-403f-950b-681ad90ca381"},{"attrs":[],"columns":[{"blocks":[{"content":{"level":"h2","text":"Es folgt ein Block mit Markdown"},"id":"b89ecd44-5169-4545-94df-2eb19682e9f4","isHidden":false,"type":"heading"},{"content":{"text":"## Eine Überschrift in Markdown\n**Fett makierter Text in Markdown**\n`Code Block`\n```js\nconst index = 10;\nconsole.log(index);\n```"},"id":"2688c127-47b9-4f24-bdaa-966b04003809","isHidden":false,"type":"markdown"}],"id":"ea8db7c1-7d85-4c08-8ff8-40d40a5c407b","width":"1/1"}],"id":"718485e2-0b2d-4021-9190-4eb166a810ca"},{"attrs":[],"columns":[{"blocks":[{"content":{"level":"h2","text":"Es folgt eine Audio-Datei"},"id":"d0f14d38-61c3-4d89-b737-63e9bb395963","isHidden":false,"type":"heading"},{"content":{"soundfile":["file://KacO02DfW9W0IrKe"],"name":"Treasure (Creative Commons)","creator":"Grenada"},"id":"eb5eb774-f246-477a-8371-2224de4bc7e0","isHidden":false,"type":"audio"}],"id":"294c4b67-95df-40f1-978b-8a123d5b7719","width":"1/1"}],"id":"197165a9-040f-4ef9-9198-b472f6c60f75"},{"attrs":[],"columns":[{"blocks":[{"content":{"level":"h2","text":"Es folgt ein eine horizontale Linie"},"id":"9dccc142-ca3a-4661-8fcb-09c0c4771f58","isHidden":false,"type":"heading"},{"content":{"name":"Linie1"},"id":"4a781ae9-d24c-404f-99bf-112e191accee","isHidden":false,"type":"horizontale-linie"}],"id":"64d10c0a-a87f-431c-9eca-f1c14bf274d3","width":"1/1"}],"id":"3c8460ae-f99f-4c9e-8386-41ff06efb83a"},{"attrs":[],"columns":[{"blocks":[{"content":{"level":"h2","text":"Es folgt eine Tabelle"},"id":"22c6f0cb-1c3c-44c5-83c0-fb166f0326be","isHidden":false,"type":"heading"},{"content":{"text":"Test-Tabelle","tabellehead":[["","",""],["Überschrift  der Tabelle","Zweite Spalte",""]],"tabellebody":[["","",""],["Das Layout im Panel","sollte","1"],["evtl. ","auch ","2"],["überarbeitet werden","","3"]]},"id":"2f8562de-6b5f-41f9-bcb5-290376a6ad39","isHidden":false,"type":"tabelle"}],"id":"584e2c14-0fdc-4fe9-be6d-3fc6d7c626df","width":"1/1"}],"id":"af97e6de-a331-4f75-bc97-ed9ff74196ea"},{"attrs":[],"columns":[{"blocks":[{"content":{"level":"h2","text":"Es folgt ein Gastautor"},"id":"79bff33e-6db2-489e-a47c-f6a4547d73ca","isHidden":false,"type":"heading"},{"content":{"name":"Geschrieben von Max Mustermann"},"id":"e5421878-b31c-450e-b4ce-fe70b9ff59f0","isHidden":false,"type":"gastautor"}],"id":"25784f67-8497-474d-9adc-e1d63392a170","width":"1/1"}],"id":"d378f522-1641-4b67-9b45-61765fb28c42"},{"attrs":[],"columns":[{"blocks":[{"content":{"level":"h2","text":"Es folgt ein Highlight-Feld"},"id":"9645e386-e322-491d-85fa-0be35cf1976c","isHidden":false,"type":"heading"},{"content":{"ueberschrift":"Überschrift","feldinhalt":"Toller text, der auch **fett**, *kursiv* oder `anders` formatiert sein kann?\nAuch ein (link: https://kgs-rastede.de text: Link) ist toll.\n- unsortierte \n- Liste\n1. oder\n2. sortierte\n3. liste\nSo sieht eine Datei aus:\n(image: img_4232.jpeg)"},"id":"8c43ea6b-7565-4a4f-a65d-38cf3d416a8d","isHidden":false,"type":"highlightfeld"}],"id":"cfdf421d-a828-4ac2-a795-f41ebda153b1","width":"1/1"}],"id":"5997fa58-27bd-4470-b66d-85b7a596899d"},{"attrs":[],"columns":[{"blocks":[{"content":{"level":"h2","text":"Es folgt  ein Zitatblock"},"id":"5067b397-d89b-4d06-96ba-f3e41698b205","isHidden":false,"type":"heading"},{"content":{"text":"ein cleveres Zitat","citation":"Albert Einstein"},"id":"58967a19-96b8-41dc-bf1c-45956bc73225","isHidden":false,"type":"quote"}],"id":"c4c15e5f-403b-418d-aa7c-06027e2542f6","width":"1/1"}],"id":"0e562bda-2c06-4f9f-bbce-a2742cbde4a1"},{"attrs":[],"columns":[{"blocks":[{"content":{"level":"h2","text":"Es folgt ein Karousel mit 3 Bildern"},"id":"d3911049-10c3-4447-b2ad-079205ddb20c","isHidden":false,"type":"heading"},{"content":{"karousel":["file://oQXIvTT9bb0g9v0x","file://jGKs9RrlBdRV4VYy","file://4HvsgRtBq9QCRj2x"]},"id":"b54171a4-3989-480f-b6f2-022b01bdbd22","isHidden":false,"type":"karousel"}],"id":"2164a27d-ac78-42a8-8d49-1f8a2f176d40","width":"1/1"}],"id":"dcf3fefe-b1c1-40de-8c9c-5bf30a9e9699"},{"attrs":[],"columns":[{"blocks":[{"content":{"level":"h2","text":"Es folgt ein Accordeon"},"id":"f0848d37-1eec-4c46-a001-2cd10cafe18b","isHidden":false,"type":"heading"},{"content":{"accordionid":"123","flush":"false","accfirst":"true","accordion":[{"accordionheading":"Moin moin, Überschrift","accordionbody":"Hi ho"},{"accordionheading":"Überschrift 2","accordionbody":"Text für die Überschrift 2"}]},"id":"41b9ed84-a81b-4524-8eaf-e0b6da5cf9f5","isHidden":false,"type":"accordion"}],"id":"195f8024-f757-47e1-88ea-456927e3b641","width":"1/1"}],"id":"ae7db2ad-1d83-4cbd-9e25-950dbf901fbe"},{"attrs":[],"columns":[{"blocks":[{"content":{"level":"h2","text":"Es folgen drei Knöpfe, 2x intern, 1x extern"},"id":"2a506a5c-3449-4aa1-ae30-96fd905cac8b","isHidden":false,"type":"heading"},{"content":{"text":"Intern, zu den Blogs","isexternal":"false","pagelink":["page://WjoMQ4wbY96tbSoO"],"externallink":"https://kgs-rastede.de"},"id":"3feed802-d476-4015-ad77-4854194955ec","isHidden":false,"type":"button"},{"content":{"text":"Intern - Kassenzeichen","isexternal":"false","pagelink":["page://1UEbamDWYVtdhKzX"],"externallink":""},"id":"746bcf74-6f0a-4471-8369-670c13d599ab","isHidden":false,"type":"button"},{"content":{"text":"Extern zu Golem.de","isexternal":"true","pagelink":[],"externallink":"https://www.golem.de"},"id":"884b3053-a139-4946-8af4-8e36f6a5f456","isHidden":false,"type":"button"}],"id":"72827966-77db-4d59-af0a-5c5c4f09fdcb","width":"1/1"}],"id":"bdace5a8-9e36-4755-9936-e9215f15f88b"},{"attrs":[],"columns":[{"blocks":[{"content":{"level":"h2","text":"Es folgt eine Reiseroute"},"id":"e27d2608-e166-45c8-aa14-5011f655e0d8","isHidden":false,"type":"heading"},{"content":{"name":"Meine kleine Reise","reise":"[{\"content\":{\"name\":\"Start\",\"kurzbeschreibung\":\"<p>Hier hat die <em>Reise</em> <strong>angefangen</strong></p>\",\"bild\":[\"file://4HvsgRtBq9QCRj2x\"],\"laengengrad\":\"45.3492\",\"breitengrad\":\"9.2323\"},\"id\":\"67313534-0d98-48f1-b507-e58fc5417add\",\"isHidden\":false,\"type\":\"koordinate\"},{\"content\":{\"name\":\"Ende\",\"kurzbeschreibung\":\"<p>Ja hier war sie auch schon wieder vorbei.</p><p>Hat aber sehr viel Spaß gemacht und <u>viel</u><br><s>geholfen</s>.</p>\",\"bild\":[\"file://jGKs9RrlBdRV4VYy\"],\"laengengrad\":\"29.0923\",\"breitengrad\":\"8.19292\"},\"id\":\"3eadadf5-fe7e-4174-836a-46f7f9604260\",\"isHidden\":false,\"type\":\"koordinate\"}]"},"id":"046c921d-54a7-4c08-8aa5-f99e0e3a4ff5","isHidden":false,"type":"reiseroute-simple"}],"id":"6759d8f1-40fd-464f-a28f-77ad0e03e4bb","width":"1/1"}],"id":"1f991b52-6153-4273-896c-f3f432642d83"},{"attrs":[],"columns":[{"blocks":[{"content":{"level":"h2","text":"Es folgt ein \"Lesen Sie auch\"-Block mit Link zu den Blogs"},"id":"e3567764-8c41-4f98-a69c-677b41c09765","isHidden":false,"type":"heading"},{"content":{"lesensieauchtitel":"Lesen sie auch... Block","lesensieauch":["page://WjoMQ4wbY96tbSoO"]},"id":"29e7fbde-8fc6-46cc-baef-928f8da9e01c","isHidden":false,"type":"lesensieauch"}],"id":"12a8164e-d341-4fce-bdf9-8792f625c474","width":"1/1"}],"id":"490739e5-728c-4aa0-9dd9-da98c814095b"},{"attrs":[],"columns":[{"blocks":[{"content":{"level":"h2","text":"Zweispaltiges Layout"},"id":"31cb4c92-e10d-40ab-8815-e394514b4dd5","isHidden":false,"type":"heading"}],"id":"513c0d02-8577-4c82-8be2-6a2676c1950c","width":"1/1"}],"id":"c97adb61-3026-455f-b171-4795b12c8ded"},{"attrs":[],"columns":[{"blocks":[{"content":{"text":"<p>Linker Text</p>"},"id":"ca73a9bc-bad9-4e50-b14a-2a0a67227d49","isHidden":false,"type":"text"},{"content":{"name":""},"id":"153bdc11-8d97-420c-866f-a059050f0bd2","isHidden":false,"type":"horizontale-linie"}],"id":"414886d4-51b5-41ae-b0d6-53368db016e8","width":"1/2"},{"blocks":[{"content":{"text":"<p>Rechter Text</p>"},"id":"0bc93320-514e-4eb4-8302-c74a70974233","isHidden":false,"type":"text"},{"content":{"text":"<p>Hier noch mehr Text, zweite Zeile, eigener Block</p>"},"id":"0e935b09-b605-4415-a08c-6dbc022bfb53","isHidden":false,"type":"text"},{"content":{"location":"web","image":["file://oQXIvTT9bb0g9v0x"],"src":"https://gitlab.com/cniehaus/homepage/-/raw/95a93c3d9e87a53afb69869fef2fdd8b8dab7d3c/assets/bilder/nwzonline-favicon.png","alt":"NWZ Logo","caption":"Bildunterschrift: Bild aus dem Web mit Ausrichtung rechts","link":"https://gitlab.com/cniehaus/homepage/-/raw/95a93c3d9e87a53afb69869fef2fdd8b8dab7d3c/assets/bilder/nwzonline-favicon.png","ratio":"","crop":"true","orientation":"rechts"},"id":"9a6e0f1f-ad2b-45dc-bcad-703b7284de9b","isHidden":false,"type":"image"},{"content":{"accordionid":"4","flush":"false","accfirst":"false","accordion":[{"accordionheading":"1. Klipp klapp","accordionbody":"Hier ist dann der Inhalt, mit **fett**, *kursiv*, und (link: https://kgs-rastede.de text: link)"},{"accordionheading":"2. Klipp klapp","accordionbody":"Hier ist dann noch mehr \nwichtiger und \n\nInformationsreicher Text"}]},"id":"36c0ebbb-e8c1-43f7-9c7b-4b1f37c6fd45","isHidden":false,"type":"accordion"},{"content":{"images":["file://JF8WUh6u8baQlh26","file://UJL42sWdQOpr8JYv"],"caption":"Bilder mit komischem Seitenverhältnis","ratio":"","crop":"false"},"id":"d8aeb875-1423-4785-aa51-f8a9c25975d9","isHidden":false,"type":"gallery"}],"id":"0e1f0272-7bb9-42eb-8f11-e6928c20b121","width":"1/2"}],"id":"1b843715-0d3a-4fd2-a257-b8bbd3a301a9"},{"attrs":[],"columns":[{"blocks":[{"content":{"text":"<p>Text nach einem zweispaltigem Layout</p>"},"id":"9c0aded9-d758-42c5-a4fc-29bcb9f3cdc7","isHidden":false,"type":"text"}],"id":"b8e5decd-aaad-4bb3-90b9-19c0f42d56e9","width":"1/1"}],"id":"e2f28d69-21cf-49a4-a0a3-e958e3a086d1"}]

----

Date: 2023-05-06 16:10:00

----

Datumstartseite: 2023-09-06 16:10:00

----

Togglestartseite: false

----

Author: 

----

Tags: 

----

Downloads: 

----

Uuid: 04A0xJH4rzQ0Giwh