Title: Testblog mit allen Blöcken

----

Text: [{"attrs":[],"columns":[{"blocks":[{"content":{"level":"h6","text":"Überschrift 6"},"id":"4ed8add1-d83d-4f31-a7fc-707903233154","isHidden":false,"type":"heading"},{"content":{"level":"h5","text":"Überschrift 5"},"id":"4e9453ea-26ed-47cd-ab46-320691045d9b","isHidden":false,"type":"heading"},{"content":{"level":"h4","text":"Überschrift 4"},"id":"e93f250e-b2dd-4c07-a008-41165b97d857","isHidden":false,"type":"heading"},{"content":{"level":"h3","text":"Überschrift 3"},"id":"2533863e-f5d4-4400-839e-b686313d7666","isHidden":false,"type":"heading"},{"content":{"level":"h2","text":"Überschrift 2"},"id":"ffb569cf-066b-42bf-938f-5d5efd9cc540","isHidden":false,"type":"heading"},{"content":{"level":"h1","text":"Überschrift 1"},"id":"44176856-0008-44a8-b782-a9556a810636","isHidden":false,"type":"heading"}],"id":"17d3e68b-27b1-4f9c-924e-79bfeb6ad4d1","width":"1/1"}],"id":"f8bd77d2-44a8-4e5b-b98d-ad551a794194"},{"attrs":[],"columns":[{"blocks":[{"content":{"text":"<p>Lorem ipsum dolor sit amet, consectetur adipiscing elit, sed do eiusmod tempor incididunt ut labore et dolore magna aliqua. Ut enim ad minim veniam, quis nostrud exercitation ullamco laboris nisi ut aliquip ex ea commodo consequat. Duis aute irure dolor in reprehenderit in voluptate velit esse cillum dolore eu fugiat nulla pariatur. Excepteur sint occaecat cupidatat non proident, sunt in culpa qui officia deserunt mollit anim id est laborum.</p>"},"id":"7047d1bc-1a42-4b9a-8a07-24deddfabb94","isHidden":false,"type":"text"}],"id":"7f09678f-f05b-4187-a6ce-da3774dcae09","width":"1/1"}],"id":"56ef8110-be42-4d5a-9168-ddd5949043a3"},{"attrs":[],"columns":[{"blocks":[{"content":{"text":"<ul><li>eine Liste</li><li>mit</li><li>drei Punkten</li></ul>"},"id":"d1ad8d09-91cb-41ec-97bb-938df041af39","isHidden":false,"type":"list"}],"id":"0ae96840-3cf8-45f8-a051-2fe0fd2a13a4","width":"1/1"}],"id":"b1da1409-c714-4f51-b97d-1ec469458fed"},{"attrs":[],"columns":[{"blocks":[{"content":{"location":"web","image":[],"src":"https://images.unsplash.com/photo-1582893523614-76d5069711f8?ixlib=rb-4.0.3&ixid=MnwxMjA3fDB8MHxwaG90by1wYWdlfHx8fGVufDB8fHx8&auto=format&fit=crop&w=2071&q=80","alt":"Alternativer Text","caption":"Bildunterschrift","link":"","ratio":"","crop":"false","orientation":""},"id":"74b8d597-59be-4ab8-b8bd-b5746c206a50","isHidden":false,"type":"image"}],"id":"68880eca-7e22-46a0-8fca-c9c7722fa123","width":"1/1"}],"id":"160d4895-7e70-4207-96f4-9b8363b60c3b"},{"attrs":[],"columns":[{"blocks":[{"content":{"level":"h2","text":"Es folgt ein Block mit Markdown"},"id":"b89ecd44-5169-4545-94df-2eb19682e9f4","isHidden":false,"type":"heading"},{"content":{"text":"## Eine Überschrift in Markdown"},"id":"2688c127-47b9-4f24-bdaa-966b04003809","isHidden":false,"type":"markdown"}],"id":"ea8db7c1-7d85-4c08-8ff8-40d40a5c407b","width":"1/1"}],"id":"718485e2-0b2d-4021-9190-4eb166a810ca"},{"attrs":[],"columns":[{"blocks":[{"content":{"level":"h2","text":"Es folgt ein Block mit Quellcode"},"id":"5fa107a1-d337-4ac8-a57d-5697e91011f1","isHidden":false,"type":"heading"},{"content":{"code":"// Definition der rekursiven Fibonacci-Funktion\nfn fibonacci(n: u32) -> u32 {\n    // Basisfälle: Fibonacci(0) ist 0, Fibonacci(1) ist 1\n    if n == 0 {\n        return 0;\n    } else if n == 1 {\n        return 1;\n    } else {\n        // Rekursive Berechnung von Fibonacci(n) durch Addition der beiden vorherigen Fibonacci-Zahlen\n        return fibonacci(n - 1) + fibonacci(n - 2);\n    }\n}\n\nfn main() {\n    // Aufrufen der Fibonacci-Funktion für die Zahlen 0 bis 9 und Ausgabe der Ergebnisse\n    for i in 0..10 {\n        println!(\"Fibonacci({}): {}\", i, fibonacci(i));\n    }\n}","language":"rust"},"id":"2f5c6406-3b95-4679-9359-165aa9bca191","isHidden":false,"type":"code"}],"id":"b4263e60-2ec7-49ad-a147-75af3756b159","width":"1/1"}],"id":"3fef9062-5e42-403f-950b-681ad90ca381"},{"attrs":[],"columns":[{"blocks":[{"content":{"level":"h2","text":"Es folgt ein eine horizontale Linie"},"id":"9dccc142-ca3a-4661-8fcb-09c0c4771f58","isHidden":false,"type":"heading"}],"id":"64d10c0a-a87f-431c-9eca-f1c14bf274d3","width":"1/1"}],"id":"3c8460ae-f99f-4c9e-8386-41ff06efb83a"},{"attrs":[],"columns":[{"blocks":[{"content":{"name":""},"id":"ce61aac3-07ce-42e3-beb7-5bf7edc91b67","isHidden":false,"type":"horizontale-linie"}],"id":"7376dc66-24dc-4f7f-bba9-bd49e55dc906","width":"1/1"}],"id":"5fec1255-4a42-4dd8-9b5e-fe9b74c2c83e"},{"attrs":[],"columns":[{"blocks":[{"content":{"level":"h2","text":"Es folgt  ein Zitatblock"},"id":"5067b397-d89b-4d06-96ba-f3e41698b205","isHidden":false,"type":"heading"}],"id":"c4c15e5f-403b-418d-aa7c-06027e2542f6","width":"1/1"}],"id":"0e562bda-2c06-4f9f-bbce-a2742cbde4a1"},{"attrs":[],"columns":[{"blocks":[{"content":{"text":"ein cleveres Zitat","citation":"Albert Einstein"},"id":"58967a19-96b8-41dc-bf1c-45956bc73225","isHidden":false,"type":"quote"}],"id":"1ff27ea8-392a-4a02-a95c-3d611e8a1175","width":"1/1"}],"id":"e877d1a6-b656-4025-bba6-2c08d09fcb5a"},{"attrs":[],"columns":[{"blocks":[{"content":{"level":"h2","text":"Es folgt ein \"Lesen Sie auch\"-Block mit Link zu den Blogs"},"id":"e3567764-8c41-4f98-a69c-677b41c09765","isHidden":false,"type":"heading"}],"id":"12a8164e-d341-4fce-bdf9-8792f625c474","width":"1/1"}],"id":"490739e5-728c-4aa0-9dd9-da98c814095b"},{"attrs":[],"columns":[{"blocks":[{"content":{"lesensieauchtitel":"Lesen sie auch... Block","lesensieauch":["page://WjoMQ4wbY96tbSoO"]},"id":"29e7fbde-8fc6-46cc-baef-928f8da9e01c","isHidden":false,"type":"lesensieauch"}],"id":"00309b6a-e3bc-4154-91da-b38f1a6c7099","width":"1/1"}],"id":"e2381692-bc92-4a7a-9466-d23fa718a716"},{"attrs":[],"columns":[{"blocks":[{"content":{"level":"h2","text":"Es folgt ein Video"},"id":"0ebd57c7-5a81-4dec-8a16-2360274a3c50","isHidden":false,"type":"heading"}],"id":"f0e8901c-48db-4272-8fa7-0f764d8cf0f6","width":"1/1"}],"id":"4424dc5b-1b6a-4fb2-b502-c2c5be60b039"},{"attrs":[],"columns":[{"blocks":[{"content":{"url":"https://youtu.be/dQw4w9WgXcQ?si=60gsh7cRNDx1OS6K","caption":"Über eine Milliarden Klicks..."},"id":"eb62111c-d096-4b3b-92fb-686425e5964f","isHidden":false,"type":"video"},{"content":{"level":"h2","text":"Zweispaltiges Layout"},"id":"31cb4c92-e10d-40ab-8815-e394514b4dd5","isHidden":false,"type":"heading"}],"id":"513c0d02-8577-4c82-8be2-6a2676c1950c","width":"1/1"}],"id":"c97adb61-3026-455f-b171-4795b12c8ded"},{"attrs":[],"columns":[{"blocks":[{"content":{"text":"<p>Linker Text</p>"},"id":"ca73a9bc-bad9-4e50-b14a-2a0a67227d49","isHidden":false,"type":"text"}],"id":"414886d4-51b5-41ae-b0d6-53368db016e8","width":"1/2"},{"blocks":[{"content":{"text":"<p>Rechter Text</p>"},"id":"0bc93320-514e-4eb4-8302-c74a70974233","isHidden":false,"type":"text"},{"content":{"text":"<p>Hier noch mehr Text, zweite Zeile, eigener Block</p>"},"id":"0e935b09-b605-4415-a08c-6dbc022bfb53","isHidden":false,"type":"text"}],"id":"0e1f0272-7bb9-42eb-8f11-e6928c20b121","width":"1/2"}],"id":"1b843715-0d3a-4fd2-a257-b8bbd3a301a9"}]

----

Date: 2023-05-06 16:10:00

----

Datumstartseite: 2023-09-06 16:10:00

----

Togglestartseite: false

----

Author: 

----

Tags: 

----

Downloads: 

----

Uuid: 04A0xJH4rzQ0Giwh